{
	"info": {
		"_postman_id": "31748d3b-279a-4541-bdf5-a8e79bfa2aa0",
		"name": "Nofaro Teste",
		"schema": "https://schema.getpostman.com/json/collection/v2.1.0/collection.json"
	},
	"item": [
		{
			"name": "Pagina Hash",
			"protocolProfileBehavior": {
				"disableBodyPruning": true
			},
			"request": {
				"method": "GET",
				"header": [],
				"body": {
					"mode": "raw",
					"raw": "\n{\n    \"filters\": {\n        \"tries\": 10172\n    }\n}",
					"options": {
						"raw": {
							"language": "json"
						}
					}
				},
				"url": {
					"raw": "http://localhost:8000/api/hash",
					"protocol": "http",
					"host": [
						"localhost"
					],
					"port": "8000",
					"path": [
						"api",
						"hash"
					]
				}
			},
			"response": [
				{
					"name": "200 Filtrado",
					"originalRequest": {
						"method": "GET",
						"header": [],
						"body": {
							"mode": "raw",
							"raw": "\n{\n    \"filters\": {\n        \"tries\": 10172\n    }\n}",
							"options": {
								"raw": {
									"language": "json"
								}
							}
						},
						"url": {
							"raw": "http://localhost:8000/api/hash",
							"protocol": "http",
							"host": [
								"localhost"
							],
							"port": "8000",
							"path": [
								"api",
								"hash"
							]
						}
					},
					"status": "OK",
					"code": 200,
					"_postman_previewlanguage": "json",
					"header": [
						{
							"key": "Host",
							"value": "localhost:8000"
						},
						{
							"key": "Date",
							"value": "Fri, 10 Dec 2021 01:13:33 GMT"
						},
						{
							"key": "Date",
							"value": "Fri, 10 Dec 2021 01:13:33 GMT"
						},
						{
							"key": "Connection",
							"value": "close"
						},
						{
							"key": "X-Powered-By",
							"value": "PHP/7.4.26"
						},
						{
							"key": "Cache-Control",
							"value": "no-cache, private"
						},
						{
							"key": "Content-Type",
							"value": "application/json"
						},
						{
							"key": "X-RateLimit-Limit",
							"value": "10"
						},
						{
							"key": "X-RateLimit-Remaining",
							"value": "8"
						},
						{
							"key": "Access-Control-Allow-Origin",
							"value": "*"
						}
					],
					"cookie": [],
					"body": "{\n    \"result\": [\n        {\n            \"batch\": \"2021-12-10T00:32:50.000000Z\",\n            \"block_number\": 16,\n            \"input\": \"0000cb1b1726dee548915aeac4cbe9d2\",\n            \"output\": \"000036c36a551f4be549400c2bce9df0\",\n            \"key\": \"hJz4wsXo\",\n            \"tries\": 101237\n        },\n        {\n            \"batch\": \"2021-12-10T00:37:43.000000Z\",\n            \"block_number\": 55,\n            \"input\": \"000073e713fa2593fe53f181ab05d676\",\n            \"output\": \"000003b9cc9c1e9500996bde2888548d\",\n            \"key\": \"xcS4PZWP\",\n            \"tries\": 100488\n        }\n    ],\n    \"pagination\": {\n        \"total\": 2,\n        \"page\": 1,\n        \"last_page\": 1\n    }\n}"
				},
				{
					"name": "200 Sem Filtros",
					"originalRequest": {
						"method": "GET",
						"header": [],
						"body": {
							"mode": "raw",
							"raw": "\n{\n    \"filters\": {\n      \n    }\n}",
							"options": {
								"raw": {
									"language": "json"
								}
							}
						},
						"url": {
							"raw": "http://localhost:8000/api/hash",
							"protocol": "http",
							"host": [
								"localhost"
							],
							"port": "8000",
							"path": [
								"api",
								"hash"
							]
						}
					},
					"status": "OK",
					"code": 200,
					"_postman_previewlanguage": "json",
					"header": [
						{
							"key": "Host",
							"value": "localhost:8000"
						},
						{
							"key": "Date",
							"value": "Fri, 10 Dec 2021 01:13:59 GMT"
						},
						{
							"key": "Date",
							"value": "Fri, 10 Dec 2021 01:13:59 GMT"
						},
						{
							"key": "Connection",
							"value": "close"
						},
						{
							"key": "X-Powered-By",
							"value": "PHP/7.4.26"
						},
						{
							"key": "Cache-Control",
							"value": "no-cache, private"
						},
						{
							"key": "Content-Type",
							"value": "application/json"
						},
						{
							"key": "X-RateLimit-Limit",
							"value": "10"
						},
						{
							"key": "X-RateLimit-Remaining",
							"value": "7"
						},
						{
							"key": "Access-Control-Allow-Origin",
							"value": "*"
						}
					],
					"cookie": [],
					"body": "{\n    \"result\": [\n        {\n            \"batch\": \"2021-12-09T22:37:03.000000Z\",\n            \"block_number\": 1,\n            \"input\": \"Nofaro\",\n            \"output\": \"00008936132cfefcb8bc2791ca114dd1\",\n            \"key\": \"k0yKlB8O\",\n            \"tries\": 19016\n        },\n        {\n            \"batch\": \"2021-12-09T22:37:03.000000Z\",\n            \"block_number\": 2,\n            \"input\": \"00008936132cfefcb8bc2791ca114dd1\",\n            \"output\": \"0000ec968098888c6d30143d01ee6906\",\n            \"key\": \"UJyzRMao\",\n            \"tries\": 18495\n        },\n        {\n            \"batch\": \"2021-12-09T22:37:03.000000Z\",\n            \"block_number\": 3,\n            \"input\": \"0000ec968098888c6d30143d01ee6906\",\n            \"output\": \"00008af9e4ed9f17e84be4f2969aad90\",\n            \"key\": \"JaUFylQb\",\n            \"tries\": 11387\n        },\n        {\n            \"batch\": \"2021-12-09T22:37:03.000000Z\",\n            \"block_number\": 4,\n            \"input\": \"00008af9e4ed9f17e84be4f2969aad90\",\n            \"output\": \"000021596bb8b37e127fdae098457899\",\n            \"key\": \"63kviaw5\",\n            \"tries\": 101727\n        },\n        {\n            \"batch\": \"2021-12-09T22:37:03.000000Z\",\n            \"block_number\": 5,\n            \"input\": \"000021596bb8b37e127fdae098457899\",\n            \"output\": \"00002f2c1c5facd26e74e8116379481f\",\n            \"key\": \"pvj4eOtH\",\n            \"tries\": 4264\n        },\n        {\n            \"batch\": \"2021-12-09T22:40:55.000000Z\",\n            \"block_number\": 1,\n            \"input\": \"Nofaro\",\n            \"output\": \"0000fbf5f74bd707c9708ab4fb59c0c5\",\n            \"key\": \"NjUyhdzo\",\n            \"tries\": 15821\n        },\n        {\n            \"batch\": \"2021-12-09T22:41:29.000000Z\",\n            \"block_number\": 1,\n            \"input\": \"Nofaro\",\n            \"output\": \"00005aadc24704841115b328cbc19e1e\",\n            \"key\": \"tUmQe8ee\",\n            \"tries\": 161080\n        },\n        {\n            \"batch\": \"2021-12-09T22:46:04.000000Z\",\n            \"block_number\": 1,\n            \"input\": \"Nofaro\",\n            \"output\": \"00003fdccb8f9530fa36fc4d19f2fe3e\",\n            \"key\": \"JKFrvkrz\",\n            \"tries\": 23156\n        },\n        {\n            \"batch\": \"2021-12-09T22:50:17.000000Z\",\n            \"block_number\": 1,\n            \"input\": \"Nofaro\",\n            \"output\": \"00004d7f85cf6587f4989a872c649fb5\",\n            \"key\": \"Y679LqQL\",\n            \"tries\": 30636\n        },\n        {\n            \"batch\": \"2021-12-09T22:50:17.000000Z\",\n            \"block_number\": 2,\n            \"input\": \"00004d7f85cf6587f4989a872c649fb5\",\n            \"output\": \"0000127dbf9c4c70306a96e788af188f\",\n            \"key\": \"5OqZjkvP\",\n            \"tries\": 19869\n        },\n        {\n            \"batch\": \"2021-12-09T22:50:17.000000Z\",\n            \"block_number\": 3,\n            \"input\": \"0000127dbf9c4c70306a96e788af188f\",\n            \"output\": \"0000558d6464a4bae946582a89b51629\",\n            \"key\": \"vRw3uqqQ\",\n            \"tries\": 110479\n        },\n        {\n            \"batch\": \"2021-12-09T22:50:17.000000Z\",\n            \"block_number\": 4,\n            \"input\": \"0000558d6464a4bae946582a89b51629\",\n            \"output\": \"00009a0fb626ca33980c39366a4d1f4f\",\n            \"key\": \"XXaeA09T\",\n            \"tries\": 42315\n        },\n        {\n            \"batch\": \"2021-12-09T22:50:17.000000Z\",\n            \"block_number\": 5,\n            \"input\": \"00009a0fb626ca33980c39366a4d1f4f\",\n            \"output\": \"000021aebea78bb7f080772a620b6077\",\n            \"key\": \"LGaPyuef\",\n            \"tries\": 19185\n        },\n        {\n            \"batch\": \"2021-12-09T22:50:17.000000Z\",\n            \"block_number\": 6,\n            \"input\": \"000021aebea78bb7f080772a620b6077\",\n            \"output\": \"0000243ada9e981d399409e4434a04a5\",\n            \"key\": \"WayxgV17\",\n            \"tries\": 40520\n        },\n        {\n            \"batch\": \"2021-12-09T22:50:17.000000Z\",\n            \"block_number\": 7,\n            \"input\": \"0000243ada9e981d399409e4434a04a5\",\n            \"output\": \"000024d73e5d768d11baacfbdfb0d551\",\n            \"key\": \"8OkjaUqa\",\n            \"tries\": 234320\n        },\n        {\n            \"batch\": \"2021-12-09T22:50:17.000000Z\",\n            \"block_number\": 8,\n            \"input\": \"000024d73e5d768d11baacfbdfb0d551\",\n            \"output\": \"000055af7fed5a629a2b6f6e6ae434b0\",\n            \"key\": \"Epk9Utyw\",\n            \"tries\": 67677\n        },\n        {\n            \"batch\": \"2021-12-09T22:50:17.000000Z\",\n            \"block_number\": 9,\n            \"input\": \"000055af7fed5a629a2b6f6e6ae434b0\",\n            \"output\": \"0000a3157796b7bb70cd82dd3bb8c2ea\",\n            \"key\": \"OWuB7EMq\",\n            \"tries\": 4822\n        },\n        {\n            \"batch\": \"2021-12-09T22:50:17.000000Z\",\n            \"block_number\": 10,\n            \"input\": \"0000a3157796b7bb70cd82dd3bb8c2ea\",\n            \"output\": \"000087c6a79bb7337949c8df4dc0e897\",\n            \"key\": \"S6yBJwkE\",\n            \"tries\": 157564\n        },\n        {\n            \"batch\": \"2021-12-09T22:51:39.000000Z\",\n            \"block_number\": 1,\n            \"input\": \"Nofaro\",\n            \"output\": \"0000d4968eb4145318d39e2239568894\",\n            \"key\": \"0bapk2aj\",\n            \"tries\": 46028\n        },\n        {\n            \"batch\": \"2021-12-09T22:51:39.000000Z\",\n            \"block_number\": 2,\n            \"input\": \"0000d4968eb4145318d39e2239568894\",\n            \"output\": \"00007d1e5b2bb62cac33642aa46a6f3d\",\n            \"key\": \"U52qzUAw\",\n            \"tries\": 6785\n        },\n        {\n            \"batch\": \"2021-12-09T22:51:39.000000Z\",\n            \"block_number\": 3,\n            \"input\": \"00007d1e5b2bb62cac33642aa46a6f3d\",\n            \"output\": \"00005b17ed46af1a0ebc42f961317c01\",\n            \"key\": \"3HG4jgEl\",\n            \"tries\": 27977\n        },\n        {\n            \"batch\": \"2021-12-09T22:51:39.000000Z\",\n            \"block_number\": 4,\n            \"input\": \"00005b17ed46af1a0ebc42f961317c01\",\n            \"output\": \"0000bcbb2fa4e978fede95b2afb7f269\",\n            \"key\": \"MTT1iMSi\",\n            \"tries\": 13708\n        },\n        {\n            \"batch\": \"2021-12-09T22:51:39.000000Z\",\n            \"block_number\": 5,\n            \"input\": \"0000bcbb2fa4e978fede95b2afb7f269\",\n            \"output\": \"0000aaaaada0f4daffe04ccbd964d9f4\",\n            \"key\": \"yD40Ff0u\",\n            \"tries\": 4595\n        },\n        {\n            \"batch\": \"2021-12-09T22:51:39.000000Z\",\n            \"block_number\": 6,\n            \"input\": \"0000aaaaada0f4daffe04ccbd964d9f4\",\n            \"output\": \"000016fdc7cf05c5974d72ef43a57c6f\",\n            \"key\": \"ePbRrkLu\",\n            \"tries\": 46549\n        },\n        {\n            \"batch\": \"2021-12-09T22:51:39.000000Z\",\n            \"block_number\": 7,\n            \"input\": \"000016fdc7cf05c5974d72ef43a57c6f\",\n            \"output\": \"0000cbd90affcf5d9497c7143fbb23dd\",\n            \"key\": \"2C3YIAyS\",\n            \"tries\": 12980\n        },\n        {\n            \"batch\": \"2021-12-09T22:51:39.000000Z\",\n            \"block_number\": 8,\n            \"input\": \"0000cbd90affcf5d9497c7143fbb23dd\",\n            \"output\": \"0000496b7e98e61c66e7dc43fa05e934\",\n            \"key\": \"BMZp2gVs\",\n            \"tries\": 337836\n        },\n        {\n            \"batch\": \"2021-12-09T22:51:39.000000Z\",\n            \"block_number\": 9,\n            \"input\": \"0000496b7e98e61c66e7dc43fa05e934\",\n            \"output\": \"0000a51f7220ea68c5b2dc5ecb02e99f\",\n            \"key\": \"VgalHMfm\",\n            \"tries\": 43205\n        },\n        {\n            \"batch\": \"2021-12-09T22:51:39.000000Z\",\n            \"block_number\": 10,\n            \"input\": \"0000a51f7220ea68c5b2dc5ecb02e99f\",\n            \"output\": \"0000531d13cb034a5e2bc6f0cb2a5ddc\",\n            \"key\": \"QTIOPl8i\",\n            \"tries\": 242302\n        },\n        {\n            \"batch\": \"2021-12-09T22:55:46.000000Z\",\n            \"block_number\": 1,\n            \"input\": \"Nofaro\",\n            \"output\": \"0000f0f75463e95c371b2b5c26d9ea3d\",\n            \"key\": \"2j6LNUH9\",\n            \"tries\": 224589\n        },\n        {\n            \"batch\": \"2021-12-09T22:57:03.000000Z\",\n            \"block_number\": 1,\n            \"input\": \"Nofaro\",\n            \"output\": \"000091b54aa9fda1d7d2e312f1fe69ea\",\n            \"key\": \"oQ41RHJr\",\n            \"tries\": 11370\n        },\n        {\n            \"batch\": \"2021-12-09T22:57:03.000000Z\",\n            \"block_number\": 2,\n            \"input\": \"000091b54aa9fda1d7d2e312f1fe69ea\",\n            \"output\": \"000018d72eddb6e41f71770560e111d2\",\n            \"key\": \"Q43e9S19\",\n            \"tries\": 50248\n        },\n        {\n            \"batch\": \"2021-12-09T22:57:03.000000Z\",\n            \"block_number\": 3,\n            \"input\": \"000018d72eddb6e41f71770560e111d2\",\n            \"output\": \"000085d13e14b6abbedf4bc020b9f4e5\",\n            \"key\": \"crHY3QYE\",\n            \"tries\": 38517\n        },\n        {\n            \"batch\": \"2021-12-09T22:57:03.000000Z\",\n            \"block_number\": 4,\n            \"input\": \"000085d13e14b6abbedf4bc020b9f4e5\",\n            \"output\": \"00006167544d442aa580119416f07847\",\n            \"key\": \"KtPjFCQN\",\n            \"tries\": 31976\n        },\n        {\n            \"batch\": \"2021-12-09T22:57:03.000000Z\",\n            \"block_number\": 5,\n            \"input\": \"00006167544d442aa580119416f07847\",\n            \"output\": \"000079998efb63bd7275c302342dd80e\",\n            \"key\": \"gRIISPEp\",\n            \"tries\": 185523\n        },\n        {\n            \"batch\": \"2021-12-09T22:57:03.000000Z\",\n            \"block_number\": 6,\n            \"input\": \"000079998efb63bd7275c302342dd80e\",\n            \"output\": \"0000d02370ca04c62ceb79dad2698ef6\",\n            \"key\": \"ok9Q686r\",\n            \"tries\": 11222\n        },\n        {\n            \"batch\": \"2021-12-09T22:57:03.000000Z\",\n            \"block_number\": 7,\n            \"input\": \"0000d02370ca04c62ceb79dad2698ef6\",\n            \"output\": \"00000e155b3b442bbab1882b23040ade\",\n            \"key\": \"tjq4SLUi\",\n            \"tries\": 73623\n        },\n        {\n            \"batch\": \"2021-12-09T22:57:03.000000Z\",\n            \"block_number\": 8,\n            \"input\": \"00000e155b3b442bbab1882b23040ade\",\n            \"output\": \"000059831c7a27028ada6587c8eb5c9c\",\n            \"key\": \"gOSNpy9i\",\n            \"tries\": 155935\n        },\n        {\n            \"batch\": \"2021-12-09T22:57:03.000000Z\",\n            \"block_number\": 9,\n            \"input\": \"000059831c7a27028ada6587c8eb5c9c\",\n            \"output\": \"0000e331a5335dbbdd3db2621393be4c\",\n            \"key\": \"uNmgyPBQ\",\n            \"tries\": 171530\n        },\n        {\n            \"batch\": \"2021-12-09T22:57:03.000000Z\",\n            \"block_number\": 10,\n            \"input\": \"0000e331a5335dbbdd3db2621393be4c\",\n            \"output\": \"000099573053bbef16dc4cc88a263713\",\n            \"key\": \"LwpRQu4B\",\n            \"tries\": 19226\n        },\n        {\n            \"batch\": \"2021-12-09T22:58:16.000000Z\",\n            \"block_number\": 1,\n            \"input\": \"Nofaro\",\n            \"output\": \"0000fb98f5335c107ca0a278d71aa188\",\n            \"key\": \"Piy6inPy\",\n            \"tries\": 20366\n        },\n        {\n            \"batch\": \"2021-12-09T22:58:16.000000Z\",\n            \"block_number\": 2,\n            \"input\": \"0000fb98f5335c107ca0a278d71aa188\",\n            \"output\": \"000090b84d9bacbb381b13d784e9da60\",\n            \"key\": \"hsMPc2og\",\n            \"tries\": 42580\n        },\n        {\n            \"batch\": \"2021-12-09T22:58:16.000000Z\",\n            \"block_number\": 3,\n            \"input\": \"000090b84d9bacbb381b13d784e9da60\",\n            \"output\": \"00003f99e2cb597ce59b446f1c5851c3\",\n            \"key\": \"Mc4iWrj1\",\n            \"tries\": 18356\n        },\n        {\n            \"batch\": \"2021-12-09T22:58:16.000000Z\",\n            \"block_number\": 4,\n            \"input\": \"00003f99e2cb597ce59b446f1c5851c3\",\n            \"output\": \"0000450db7487c43e4d37b0d5e21ba04\",\n            \"key\": \"stcgVLvO\",\n            \"tries\": 23846\n        },\n        {\n            \"batch\": \"2021-12-09T22:58:16.000000Z\",\n            \"block_number\": 5,\n            \"input\": \"0000450db7487c43e4d37b0d5e21ba04\",\n            \"output\": \"00009e8fee0dd9c42f7e071968733dcd\",\n            \"key\": \"SWnJtqsC\",\n            \"tries\": 22865\n        },\n        {\n            \"batch\": \"2021-12-09T22:58:16.000000Z\",\n            \"block_number\": 6,\n            \"input\": \"00009e8fee0dd9c42f7e071968733dcd\",\n            \"output\": \"0000f4faa3bf293be9e86b84c3531f13\",\n            \"key\": \"AF1MzETM\",\n            \"tries\": 80331\n        },\n        {\n            \"batch\": \"2021-12-09T22:58:16.000000Z\",\n            \"block_number\": 7,\n            \"input\": \"0000f4faa3bf293be9e86b84c3531f13\",\n            \"output\": \"00003888b39955ec0e64c49ee97fe821\",\n            \"key\": \"FAj2X4A1\",\n            \"tries\": 8280\n        },\n        {\n            \"batch\": \"2021-12-09T22:58:16.000000Z\",\n            \"block_number\": 8,\n            \"input\": \"00003888b39955ec0e64c49ee97fe821\",\n            \"output\": \"00006de345154a95b056f18ba0c1ad6f\",\n            \"key\": \"68IPmEPv\",\n            \"tries\": 269143\n        },\n        {\n            \"batch\": \"2021-12-09T22:58:16.000000Z\",\n            \"block_number\": 9,\n            \"input\": \"00006de345154a95b056f18ba0c1ad6f\",\n            \"output\": \"0000387e24c02f95dcfbb3e950e0a567\",\n            \"key\": \"Ac4wL1lx\",\n            \"tries\": 13954\n        },\n        {\n            \"batch\": \"2021-12-09T22:58:16.000000Z\",\n            \"block_number\": 10,\n            \"input\": \"0000387e24c02f95dcfbb3e950e0a567\",\n            \"output\": \"00001ea4f3a0c55bd79481b781af9c32\",\n            \"key\": \"Kv1gibpA\",\n            \"tries\": 14765\n        },\n        {\n            \"batch\": \"2021-12-09T22:58:16.000000Z\",\n            \"block_number\": 11,\n            \"input\": \"00001ea4f3a0c55bd79481b781af9c32\",\n            \"output\": \"00005e1d96d526b96b9b31d4e84b43eb\",\n            \"key\": \"B9R1Syw0\",\n            \"tries\": 431731\n        }\n    ],\n    \"pagination\": {\n        \"total\": 464,\n        \"page\": 1,\n        \"last_page\": 10\n    }\n}"
				}
			]
		},
		{
			"name": "Cria Hash",
			"request": {
				"method": "POST",
				"header": [],
				"body": {
					"mode": "raw",
					"raw": "{\n    \"string\": \"Nofaro\"\n}",
					"options": {
						"raw": {
							"language": "json"
						}
					}
				},
				"url": {
					"raw": "http://localhost:8000/api/hash",
					"protocol": "http",
					"host": [
						"localhost"
					],
					"port": "8000",
					"path": [
						"api",
						"hash"
					]
				}
			},
			"response": [
				{
					"name": "201 Ok",
					"originalRequest": {
						"method": "POST",
						"header": [],
						"body": {
							"mode": "raw",
							"raw": "{\n    \"string\": \"Nofaro\"\n}",
							"options": {
								"raw": {
									"language": "json"
								}
							}
						},
						"url": {
							"raw": "http://localhost:8000/api/hash",
							"protocol": "http",
							"host": [
								"localhost"
							],
							"port": "8000",
							"path": [
								"api",
								"hash"
							]
						}
					},
					"status": "OK",
					"code": 200,
					"_postman_previewlanguage": "json",
					"header": [
						{
							"key": "Host",
							"value": "localhost:8000"
						},
						{
							"key": "Date",
							"value": "Fri, 10 Dec 2021 01:13:15 GMT"
						},
						{
							"key": "Date",
							"value": "Fri, 10 Dec 2021 01:13:15 GMT"
						},
						{
							"key": "Connection",
							"value": "close"
						},
						{
							"key": "X-Powered-By",
							"value": "PHP/7.4.26"
						},
						{
							"key": "Cache-Control",
							"value": "no-cache, private"
						},
						{
							"key": "Content-Type",
							"value": "application/json"
						},
						{
							"key": "X-RateLimit-Limit",
							"value": "10"
						},
						{
							"key": "X-RateLimit-Remaining",
							"value": "9"
						},
						{
							"key": "Access-Control-Allow-Origin",
							"value": "*"
						}
					],
					"cookie": [],
					"body": "{\n    \"hash\": \"000029ccd51eda7ad8c03b1fa0deb685\"\n}"
				}
			]
		}
	]
}
